%YAML 1.1
%TAG !u! tag:unity3d.com,2011:
--- !u!1001 &138422825661423348
PrefabInstance:
  m_ObjectHideFlags: 0
  serializedVersion: 2
  m_Modification:
    m_TransformParent: {fileID: 138422826341179539}
    m_Modifications:
    - target: {fileID: 9054488805941753244, guid: a4061d911b4f9574fabdf14d3103fcca,
        type: 3}
      propertyPath: m_Name
      value: OtherCar (1)
      objectReference: {fileID: 0}
    - target: {fileID: 9052543535063863118, guid: a4061d911b4f9574fabdf14d3103fcca,
        type: 3}
      propertyPath: m_LocalPosition.x
      value: 8.5
      objectReference: {fileID: 0}
    - target: {fileID: 9052543535063863118, guid: a4061d911b4f9574fabdf14d3103fcca,
        type: 3}
      propertyPath: m_LocalPosition.y
      value: 0
      objectReference: {fileID: 0}
    - target: {fileID: 9052543535063863118, guid: a4061d911b4f9574fabdf14d3103fcca,
        type: 3}
      propertyPath: m_LocalPosition.z
      value: 60
      objectReference: {fileID: 0}
    - target: {fileID: 9052543535063863118, guid: a4061d911b4f9574fabdf14d3103fcca,
        type: 3}
      propertyPath: m_LocalRotation.x
      value: 0
      objectReference: {fileID: 0}
    - target: {fileID: 9052543535063863118, guid: a4061d911b4f9574fabdf14d3103fcca,
        type: 3}
      propertyPath: m_LocalRotation.y
      value: 0
      objectReference: {fileID: 0}
    - target: {fileID: 9052543535063863118, guid: a4061d911b4f9574fabdf14d3103fcca,
        type: 3}
      propertyPath: m_LocalRotation.z
      value: 0
      objectReference: {fileID: 0}
    - target: {fileID: 9052543535063863118, guid: a4061d911b4f9574fabdf14d3103fcca,
        type: 3}
      propertyPath: m_LocalRotation.w
      value: 1
      objectReference: {fileID: 0}
    - target: {fileID: 9052543535063863118, guid: a4061d911b4f9574fabdf14d3103fcca,
        type: 3}
      propertyPath: m_RootOrder
      value: 4
      objectReference: {fileID: 0}
    - target: {fileID: 9052543535063863118, guid: a4061d911b4f9574fabdf14d3103fcca,
        type: 3}
      propertyPath: m_LocalEulerAnglesHint.x
      value: 0
      objectReference: {fileID: 0}
    - target: {fileID: 9052543535063863118, guid: a4061d911b4f9574fabdf14d3103fcca,
        type: 3}
      propertyPath: m_LocalEulerAnglesHint.y
      value: 0
      objectReference: {fileID: 0}
    - target: {fileID: 9052543535063863118, guid: a4061d911b4f9574fabdf14d3103fcca,
        type: 3}
      propertyPath: m_LocalEulerAnglesHint.z
      value: 0
      objectReference: {fileID: 0}
    m_RemovedComponents: []
  m_SourcePrefab: {fileID: 100100000, guid: a4061d911b4f9574fabdf14d3103fcca, type: 3}
--- !u!1001 &2835210617134622833
PrefabInstance:
  m_ObjectHideFlags: 0
  serializedVersion: 2
  m_Modification:
    m_TransformParent: {fileID: 0}
    m_Modifications:
    - target: {fileID: 2788704377314380003, guid: 138fc71d88ac38040abfc8ec82365431,
        type: 3}
      propertyPath: m_Name
      value: Module1 Variant
      objectReference: {fileID: 0}
    - target: {fileID: 2788704377314380002, guid: 138fc71d88ac38040abfc8ec82365431,
        type: 3}
      propertyPath: m_LocalPosition.x
      value: 20.39964
      objectReference: {fileID: 0}
    - target: {fileID: 2788704377314380002, guid: 138fc71d88ac38040abfc8ec82365431,
        type: 3}
      propertyPath: m_LocalPosition.y
      value: 0
      objectReference: {fileID: 0}
    - target: {fileID: 2788704377314380002, guid: 138fc71d88ac38040abfc8ec82365431,
        type: 3}
      propertyPath: m_LocalPosition.z
      value: -44.137753
      objectReference: {fileID: 0}
    - target: {fileID: 2788704377314380002, guid: 138fc71d88ac38040abfc8ec82365431,
        type: 3}
      propertyPath: m_LocalRotation.x
      value: -0
      objectReference: {fileID: 0}
    - target: {fileID: 2788704377314380002, guid: 138fc71d88ac38040abfc8ec82365431,
        type: 3}
      propertyPath: m_LocalRotation.y
      value: -0
      objectReference: {fileID: 0}
    - target: {fileID: 2788704377314380002, guid: 138fc71d88ac38040abfc8ec82365431,
        type: 3}
      propertyPath: m_LocalRotation.z
      value: -0
      objectReference: {fileID: 0}
    - target: {fileID: 2788704377314380002, guid: 138fc71d88ac38040abfc8ec82365431,
        type: 3}
      propertyPath: m_LocalRotation.w
      value: 1
      objectReference: {fileID: 0}
    - target: {fileID: 2788704377314380002, guid: 138fc71d88ac38040abfc8ec82365431,
        type: 3}
      propertyPath: m_RootOrder
      value: 0
      objectReference: {fileID: 0}
    - target: {fileID: 2788704377314380002, guid: 138fc71d88ac38040abfc8ec82365431,
        type: 3}
      propertyPath: m_LocalEulerAnglesHint.x
      value: 0
      objectReference: {fileID: 0}
    - target: {fileID: 2788704377314380002, guid: 138fc71d88ac38040abfc8ec82365431,
        type: 3}
      propertyPath: m_LocalEulerAnglesHint.y
      value: 0
      objectReference: {fileID: 0}
    - target: {fileID: 2788704377314380002, guid: 138fc71d88ac38040abfc8ec82365431,
        type: 3}
      propertyPath: m_LocalEulerAnglesHint.z
      value: 0
      objectReference: {fileID: 0}
    - target: {fileID: 2788704378395746521, guid: 138fc71d88ac38040abfc8ec82365431,
        type: 3}
      propertyPath: m_LocalPosition.y
      value: 0
      objectReference: {fileID: 0}
    - target: {fileID: 2788704378196347642, guid: 138fc71d88ac38040abfc8ec82365431,
        type: 3}
      propertyPath: m_LocalPosition.y
      value: 0
      objectReference: {fileID: 0}
    - target: {fileID: 2788704376840031036, guid: 138fc71d88ac38040abfc8ec82365431,
        type: 3}
      propertyPath: m_LocalPosition.y
      value: 0
      objectReference: {fileID: 0}
    - target: {fileID: 3856282781209825888, guid: 138fc71d88ac38040abfc8ec82365431,
        type: 3}
      propertyPath: m_RootOrder
      value: 5
      objectReference: {fileID: 0}
    - target: {fileID: 3856282781209825888, guid: 138fc71d88ac38040abfc8ec82365431,
        type: 3}
      propertyPath: m_LocalPosition.y
      value: 0
      objectReference: {fileID: 0}
    - target: {fileID: 3856282781209825888, guid: 138fc71d88ac38040abfc8ec82365431,
        type: 3}
      propertyPath: m_LocalPosition.x
      value: 0
      objectReference: {fileID: 0}
    - target: {fileID: 5044157724694621036, guid: 138fc71d88ac38040abfc8ec82365431,
        type: 3}
      propertyPath: m_LocalPosition.y
      value: 0
      objectReference: {fileID: 0}
    m_RemovedComponents: []
  m_SourcePrefab: {fileID: 100100000, guid: 138fc71d88ac38040abfc8ec82365431, type: 3}
--- !u!4 &138422826341179539 stripped
Transform:
  m_CorrespondingSourceObject: {fileID: 2788704377314380002, guid: 138fc71d88ac38040abfc8ec82365431,
    type: 3}
  m_PrefabInstance: {fileID: 2835210617134622833}
  m_PrefabAsset: {fileID: 0}
