%YAML 1.1
%TAG !u! tag:unity3d.com,2011:
--- !u!114 &11400000
MonoBehaviour:
  m_ObjectHideFlags: 0
  m_CorrespondingSourceObject: {fileID: 0}
  m_PrefabInstance: {fileID: 0}
  m_PrefabAsset: {fileID: 0}
  m_GameObject: {fileID: 0}
  m_Enabled: 1
  m_EditorHideFlags: 0
  m_Script: {fileID: 11500000, guid: ac68687ec93bce14087c8d308cd67cab, type: 3}
  m_Name: RestArea
  m_EditorClassIdentifier: 
  sprite: {fileID: 21300000, guid: 31ac2fa3bf614cf48bbdd3686557037b, type: 3}
  introduction: Empty space on the side of the road gives an ideal opportunity to
    take a break.
  audioIntroduction: Play_RestStopStart
  audioOuttro: Play_RestStopEnd
  numberOfActions: 3
  responses:
  - 'Have few beers '
  - 'Watch the beautifull nature scenery! '
  - 'Fix the truck a little '
  audio:
  - Play_RestStop01
  - Play_RestStop02
  - Play_RestStop03
  fucks: 1400000000000000f6ffffff
  truck: 000000000000000001000000
